[
    {
        "model": "helpdesk.ticket",
        "pk": 1,
        "fields": {
            "title": "Some django-helpdesk Problem",
            "queue": 1,
            "created": "2017-03-20T04:52:18.321",
            "modified": "2017-03-20T04:52:18.561",
            "submitter_email": "helpdesk@example.com",
            "assigned_to": null,
            "status": 1,
            "on_hold": false,
            "description": "I'm having some problem with django-helpdesk that I need help with.",
            "resolution": null,
            "priority": 3,
            "due_date": "2017-03-04T00:00:00",
            "last_escalation": null,
            "secret_key": "c391f289-d19a-4040-9fb7-a842c4c2eca9",
            "kbitem": null,
            "merged_to": null
        }
    },
    {
        "model": "helpdesk.ticket",
        "pk": 2,
        "fields": {
            "title": "Something else",
            "queue": 2,
            "created": "2017-03-20T04:54:53.001",
            "modified": "2017-03-20T04:54:53.031",
            "submitter_email": "helpdesk@example.com",
            "assigned_to": null,
            "status": 1,
            "on_hold": false,
            "description": "Something else with some other product. Not a big deal.",
            "resolution": null,
            "priority": 4,
            "due_date": "2017-03-01T00:00:00",
            "last_escalation": null,
            "secret_key": "2f39de0b-1e2a-4432-aaa0-bc728fa45d68",
            "kbitem": null,
            "merged_to": null
        }
    },
    {
        "model": "helpdesk.ticket",
        "pk": 3,
        "fields": {
            "title": "Something with an attachment",
            "queue": 1,
            "created": "2017-03-20T05:14:36.320",
            "modified": "2017-03-20T05:28:28.695",
            "submitter_email": "helpdesk@example.com",
            "assigned_to": null,
            "status": 1,
            "on_hold": false,
            "description": "WHOA!",
            "resolution": null,
            "priority": 1,
            "due_date": null,
            "last_escalation": null,
            "secret_key": "7026e881-90ab-4389-a8be-158122777b6b",
            "kbitem": null,
            "merged_to": null
        }
    },
    {
        "model": "helpdesk.ticket",
        "pk": 4,
        "fields": {
            "title": "wkcieffkpglfudprvinh",
            "queue": 2,
            "created": "2021-08-16T15:13:51.270",
            "modified": "2021-08-16T15:13:51.270",
            "submitter_email": null,
            "assigned_to": null,
            "status": 2,
            "on_hold": false,
            "description": "ahrqqgsqlslsneavrqyzvqtfbvndooydfekoziwaqzhuxmyfmu",
            "resolution": "",
            "priority": 1,
            "due_date": null,
            "last_escalation": null,
            "secret_key": "1",
            "kbitem": null,
            "merged_to": null
        }
    },
    {
        "model": "helpdesk.ticket",
        "pk": 5,
        "fields": {
            "title": "lkiougyrrctqbwtqlhyt",
            "queue": 1,
            "created": "2021-08-16T15:13:51.315",
            "modified": "2021-08-16T15:13:51.315",
            "submitter_email": null,
            "assigned_to": null,
            "status": 4,
            "on_hold": false,
            "description": "ahbpkxkicklzhiqapkvlbvcgyejfwrrjrgzwqogbseldmwuhos",
            "resolution": "",
            "priority": 1,
            "due_date": null,
            "last_escalation": null,
            "secret_key": "1",
            "kbitem": null,
            "merged_to": null
        }
    },
    {
        "model": "helpdesk.ticket",
        "pk": 6,
        "fields": {
            "title": "mihupyfsalymbjmunqgv",
            "queue": 1,
            "created": "2021-08-16T15:13:51.315",
            "modified": "2021-08-16T15:13:51.315",
            "submitter_email": null,
            "assigned_to": null,
            "status": 5,
            "on_hold": false,
            "description": "dmfdeautiasoqbxvbizsdmzdcalhbjioqyxfhueispwfdhzmui",
            "resolution": "",
            "priority": 4,
            "due_date": null,
            "last_escalation": null,
            "secret_key": "1",
            "kbitem": null,
            "merged_to": null
        }
    },
    {
        "model": "helpdesk.ticket",
        "pk": 7,
        "fields": {
            "title": "twvwjmztrcssmgugpfeo",
            "queue": 2,
            "created": "2021-08-16T15:13:51.332",
            "modified": "2021-08-16T15:13:51.332",
            "submitter_email": null,
            "assigned_to": null,
            "status": 3,
            "on_hold": false,
            "description": "mpxiumjjseidpiznwyraigzxoaqjyolceceksggmqtsjsbhaos",
            "resolution": "",
            "priority": 5,
            "due_date": null,
            "last_escalation": null,
            "secret_key": "1",
            "kbitem": null,
            "merged_to": null
        }
    },
    {
        "model": "helpdesk.ticket",
        "pk": 8,
        "fields": {
            "title": "tyarwhlafrgkggakjkul",
            "queue": 2,
            "created": "2021-08-16T15:13:51.333",
            "modified": "2021-08-16T15:13:51.333",
            "submitter_email": null,
            "assigned_to": null,
            "status": 1,
            "on_hold": false,
            "description": "tuiaysspdktumvuijhzyndpvgemyhzlhgkzlermomejvybsejy",
            "resolution": "",
            "priority": 4,
            "due_date": null,
            "last_escalation": null,
            "secret_key": "1",
            "kbitem": null,
            "merged_to": null
        }
    },
    {
        "model": "helpdesk.ticket",
        "pk": 9,
        "fields": {
            "title": "toopjctbvltidztfvkgg",
            "queue": 2,
            "created": "2021-08-16T15:13:53.404",
            "modified": "2021-08-16T15:13:53.404",
            "submitter_email": null,
            "assigned_to": null,
            "status": 5,
            "on_hold": false,
            "description": "wvrwvhgpqmlowuxcwmnuzyrxncjvalfjbxllgtqsyzkborbexz",
            "resolution": "",
            "priority": 4,
            "due_date": null,
            "last_escalation": null,
            "secret_key": "1",
            "kbitem": null,
            "merged_to": null
        }
    },
    {
        "model": "helpdesk.ticket",
        "pk": 10,
        "fields": {
            "title": "ofpkybsixussxlpxnbqq",
            "queue": 2,
            "created": "2021-08-16T15:13:53.490",
            "modified": "2021-08-16T15:13:53.490",
            "submitter_email": null,
            "assigned_to": null,
            "status": 2,
            "on_hold": false,
            "description": "qnopkxbjgpuqqlkbsrqxvjotxhbybizenqsebwajgrlbnazjzn",
            "resolution": "",
            "priority": 3,
            "due_date": null,
            "last_escalation": null,
            "secret_key": "1",
            "kbitem": null,
            "merged_to": null
        }
    },
    {
        "model": "helpdesk.ticket",
        "pk": 11,
        "fields": {
            "title": "xrvfoqpzezqrgrosnvrk",
            "queue": 1,
            "created": "2021-08-16T15:13:53.492",
            "modified": "2021-08-16T15:13:53.492",
            "submitter_email": null,
            "assigned_to": null,
            "status": 1,
            "on_hold": false,
            "description": "wnlgskiiripxqpghxftzdkcqusestwwfgsylsjmsdswppywuzp",
            "resolution": "",
            "priority": 4,
            "due_date": null,
            "last_escalation": null,
            "secret_key": "1",
            "kbitem": null,
            "merged_to": null
        }
    },
    {
        "model": "helpdesk.ticket",
        "pk": 12,
        "fields": {
            "title": "rfszjpslllsvopujwzye",
            "queue": 1,
            "created": "2021-08-16T15:13:53.515",
            "modified": "2021-08-16T15:13:53.515",
            "submitter_email": null,
            "assigned_to": null,
            "status": 3,
            "on_hold": false,
            "description": "kawcwhnhnwldtteekuabcxdptsqokrirgcaowrohrnfwuzpuit",
            "resolution": "",
            "priority": 3,
            "due_date": null,
            "last_escalation": null,
            "secret_key": "1",
            "kbitem": null,
            "merged_to": null
        }
    },
    {
        "model": "helpdesk.ticket",
        "pk": 13,
        "fields": {
            "title": "ednnzpmgdlqppojyygnt",
            "queue": 1,
            "created": "2021-08-16T15:13:53.564",
            "modified": "2021-08-16T15:13:53.564",
            "submitter_email": null,
            "assigned_to": null,
            "status": 4,
            "on_hold": false,
            "description": "zqcoxcbvxllqvybzpqsuybfdzkzvgtshjjtpvovktnyzdnllrs",
            "resolution": "",
            "priority": 2,
            "due_date": null,
            "last_escalation": null,
            "secret_key": "1",
            "kbitem": null,
            "merged_to": null
        }
    },
    {
        "model": "helpdesk.ticket",
        "pk": 14,
        "fields": {
            "title": "tzmquepnadojxstzmfua",
            "queue": 2,
            "created": "2021-08-16T15:13:55.577",
            "modified": "2021-08-16T15:13:55.577",
            "submitter_email": null,
            "assigned_to": null,
            "status": 3,
            "on_hold": false,
            "description": "kdhlvsezuxmttxiewtfalmgbkghltzgaklwlxpiigqpyrqhorf",
            "resolution": "",
            "priority": 4,
            "due_date": null,
            "last_escalation": null,
            "secret_key": "1",
            "kbitem": null,
            "merged_to": null
        }
    },
    {
        "model": "helpdesk.ticket",
        "pk": 15,
        "fields": {
            "title": "cbqdaowgtpaeykmvusgl",
            "queue": 2,
            "created": "2021-08-16T15:13:55.600",
            "modified": "2021-08-16T15:13:55.600",
            "submitter_email": null,
            "assigned_to": null,
            "status": 4,
            "on_hold": false,
            "description": "bwwmhtjlxqztaoiyhqpnaqzkfjcefjakhylterucuyiisidpob",
            "resolution": "",
            "priority": 3,
            "due_date": null,
            "last_escalation": null,
            "secret_key": "1",
            "kbitem": null,
            "merged_to": null
        }
    },
    {
        "model": "helpdesk.ticket",
        "pk": 16,
        "fields": {
            "title": "pefkfcxcaoalgsaazoad",
            "queue": 1,
            "created": "2021-08-16T15:13:55.712",
            "modified": "2021-08-16T15:13:55.712",
            "submitter_email": null,
            "assigned_to": null,
            "status": 5,
            "on_hold": false,
            "description": "encbcnmiwszzctqnfunwsewfpxwfyzpxcictnbyrdrcgcfegxa",
            "resolution": "",
            "priority": 3,
            "due_date": null,
            "last_escalation": null,
            "secret_key": "1",
            "kbitem": null,
            "merged_to": null
        }
    },
    {
        "model": "helpdesk.ticket",
        "pk": 17,
        "fields": {
            "title": "apqfvpryvbyvkkyjeyzs",
            "queue": 2,
            "created": "2021-08-16T15:13:55.770",
            "modified": "2021-08-16T15:13:55.770",
            "submitter_email": null,
            "assigned_to": null,
            "status": 1,
            "on_hold": false,
            "description": "wohmjxswzjbbsnaivxmqgytlcrthmsejqpmwvhqgdekqjtlilq",
            "resolution": "",
            "priority": 2,
            "due_date": null,
            "last_escalation": null,
            "secret_key": "1",
            "kbitem": null,
            "merged_to": null
        }
    },
    {
        "model": "helpdesk.ticket",
        "pk": 18,
        "fields": {
            "title": "zzyayrlgwpsmxpmsbxzy",
            "queue": 2,
            "created": "2021-08-16T15:13:55.824",
            "modified": "2021-08-16T15:13:55.824",
            "submitter_email": null,
            "assigned_to": null,
            "status": 2,
            "on_hold": false,
            "description": "lzetmbjbrpgzsqupdqtgunuadurwnfbxvdimbddpbucbncxqrh",
            "resolution": "",
            "priority": 4,
            "due_date": null,
            "last_escalation": null,
            "secret_key": "1",
            "kbitem": null,
            "merged_to": null
        }
    },
    {
        "model": "helpdesk.ticket",
        "pk": 19,
        "fields": {
            "title": "zotdkhkgacaostpnliet",
            "queue": 1,
            "created": "2021-08-16T15:13:57.499",
            "modified": "2021-08-16T15:13:57.499",
            "submitter_email": null,
            "assigned_to": null,
            "status": 3,
            "on_hold": false,
            "description": "ztwaqwntihoksjmifahbshjwvrajbeltqdazdmvratlejxwowv",
            "resolution": "",
            "priority": 4,
            "due_date": null,
            "last_escalation": null,
            "secret_key": "1",
            "kbitem": null,
            "merged_to": null
        }
    },
    {
        "model": "helpdesk.ticket",
        "pk": 20,
        "fields": {
            "title": "bjfasegvlfeqhqffowee",
            "queue": 2,
            "created": "2021-08-16T15:13:57.849",
            "modified": "2021-08-16T15:13:57.849",
            "submitter_email": null,
            "assigned_to": null,
            "status": 1,
            "on_hold": false,
            "description": "qxrgdzdkeavbvlwcfzfxpfctimwptbeaszlxyzsueaulluxwqk",
            "resolution": "",
            "priority": 5,
            "due_date": null,
            "last_escalation": null,
            "secret_key": "1",
            "kbitem": null,
            "merged_to": null
        }
    },
    {
        "model": "helpdesk.ticket",
        "pk": 21,
        "fields": {
            "title": "korgytgvnihpajzovvby",
            "queue": 2,
            "created": "2021-08-16T15:13:57.870",
            "modified": "2021-08-16T15:13:57.870",
            "submitter_email": null,
            "assigned_to": null,
            "status": 5,
            "on_hold": false,
            "description": "oclljkqytsblpkufarywkndxvuoyospaoeororgbelueefasdm",
            "resolution": "",
            "priority": 1,
            "due_date": null,
            "last_escalation": null,
            "secret_key": "1",
            "kbitem": null,
            "merged_to": null
        }
    },
    {
        "model": "helpdesk.ticket",
        "pk": 22,
        "fields": {
            "title": "lfjjepkvtbotejhmdurq",
            "queue": 1,
            "created": "2021-08-16T15:13:57.896",
            "modified": "2021-08-16T15:13:57.896",
            "submitter_email": null,
            "assigned_to": null,
            "status": 4,
            "on_hold": false,
            "description": "wpzvikrftblanuojpeasjmeeaqvfggxbsempiuxhrfffgciafq",
            "resolution": "",
            "priority": 2,
            "due_date": null,
            "last_escalation": null,
            "secret_key": "1",
            "kbitem": null,
            "merged_to": null
        }
    },
    {
        "model": "helpdesk.ticket",
        "pk": 23,
        "fields": {
            "title": "gmjhinvfbshetihjaggx",
            "queue": 2,
            "created": "2021-08-16T15:13:57.900",
            "modified": "2021-08-16T15:13:57.901",
            "submitter_email": null,
            "assigned_to": null,
            "status": 2,
            "on_hold": false,
            "description": "qyulqfkepmphvsdeygxxbpvhlzjpesvyjlsaloafhnvzescwhw",
            "resolution": "",
            "priority": 5,
            "due_date": null,
            "last_escalation": null,
            "secret_key": "1",
            "kbitem": null,
            "merged_to": null
        }
    },
    {
        "model": "helpdesk.ticket",
        "pk": 24,
        "fields": {
            "title": "smcytoourlplyjtfjxxe",
            "queue": 2,
            "created": "2021-08-16T15:13:59.515",
            "modified": "2021-08-16T15:13:59.515",
            "submitter_email": null,
            "assigned_to": null,
            "status": 3,
            "on_hold": false,
            "description": "ntutqthvtcqtnwnrbclvmuelphogveytavvlgptavwqnafwwuw",
            "resolution": "",
            "priority": 2,
            "due_date": null,
            "last_escalation": null,
            "secret_key": "1",
            "kbitem": null,
            "merged_to": null
        }
    },
    {
        "model": "helpdesk.ticket",
        "pk": 25,
        "fields": {
            "title": "obmdddnkmlboprdrcuay",
            "queue": 1,
            "created": "2021-08-16T15:13:59.965",
            "modified": "2021-08-16T15:13:59.965",
            "submitter_email": null,
            "assigned_to": null,
            "status": 1,
            "on_hold": false,
            "description": "geqdemitarlbkciekfcjskgdlyswgjpafnyfobjahtkldjppdb",
            "resolution": "",
            "priority": 5,
            "due_date": null,
            "last_escalation": null,
            "secret_key": "1",
            "kbitem": null,
            "merged_to": null
        }
    },
    {
        "model": "helpdesk.ticket",
        "pk": 26,
        "fields": {
            "title": "gnqfwnlgenzmvcmibkjl",
            "queue": 1,
            "created": "2021-08-16T15:14:00.028",
            "modified": "2021-08-16T15:14:00.028",
            "submitter_email": null,
            "assigned_to": null,
            "status": 5,
            "on_hold": false,
            "description": "fctoxvtsqwnmdrsabspvpzmyrdlznxiabjpseqnzkgbwjobfce",
            "resolution": "",
            "priority": 5,
            "due_date": null,
            "last_escalation": null,
            "secret_key": "1",
            "kbitem": null,
            "merged_to": null
        }
    },
    {
        "model": "helpdesk.ticket",
        "pk": 27,
        "fields": {
            "title": "btpicczpscusowlbashy",
            "queue": 2,
            "created": "2021-08-16T15:14:00.097",
            "modified": "2021-08-16T15:14:00.097",
            "submitter_email": null,
            "assigned_to": null,
            "status": 4,
            "on_hold": false,
            "description": "spgxbnohqbiooxupldchguyuhevxeuhyfpazxioydygycpdtkd",
            "resolution": "",
            "priority": 3,
            "due_date": null,
            "last_escalation": null,
            "secret_key": "1",
            "kbitem": null,
            "merged_to": null
        }
    },
    {
        "model": "helpdesk.ticket",
        "pk": 28,
        "fields": {
            "title": "ivudlyfcsjvuwlsjkchb",
            "queue": 1,
            "created": "2021-08-16T15:14:00.102",
            "modified": "2021-08-16T15:14:00.102",
            "submitter_email": null,
            "assigned_to": null,
            "status": 2,
            "on_hold": false,
            "description": "jgdictdpjohlexuldwfaflidzwvgygazzmzqliwwtbewspktop",
            "resolution": "",
            "priority": 1,
            "due_date": null,
            "last_escalation": null,
            "secret_key": "1",
            "kbitem": null,
            "merged_to": null
        }
    },
    {
        "model": "helpdesk.ticket",
        "pk": 29,
        "fields": {
            "title": "mdwfrjiiaznwbqbfzdzt",
            "queue": 1,
            "created": "2021-08-16T15:14:01.454",
            "modified": "2021-08-16T15:14:01.454",
            "submitter_email": null,
            "assigned_to": null,
            "status": 3,
            "on_hold": false,
            "description": "apcehisooakfybiofzktxujvqnnjdbyvnennjrelahtvvgzoxl",
            "resolution": "",
            "priority": 4,
            "due_date": null,
            "last_escalation": null,
            "secret_key": "1",
            "kbitem": null,
            "merged_to": null
        }
    },
    {
        "model": "helpdesk.ticket",
        "pk": 30,
        "fields": {
            "title": "fcafqassjqaosqsykfym",
            "queue": 2,
            "created": "2021-08-16T15:14:02.267",
            "modified": "2021-08-16T15:14:02.267",
            "submitter_email": null,
            "assigned_to": null,
            "status": 5,
            "on_hold": false,
            "description": "hgatournqnlzjqkgbvetbqtgfehzawtjadebaszayubvrfxwpm",
            "resolution": "",
            "priority": 2,
            "due_date": null,
            "last_escalation": null,
            "secret_key": "1",
            "kbitem": null,
            "merged_to": null
        }
    },
    {
        "model": "helpdesk.ticket",
        "pk": 31,
        "fields": {
            "title": "dnlptprlcdyspeghkifi",
            "queue": 1,
            "created": "2021-08-16T15:14:02.295",
            "modified": "2021-08-16T15:14:02.295",
            "submitter_email": null,
            "assigned_to": null,
            "status": 1,
            "on_hold": false,
            "description": "arixpxgovjbjuulfetgbvleqrsuxknfprccrjebynkprbxxnpy",
            "resolution": "",
            "priority": 2,
            "due_date": null,
            "last_escalation": null,
            "secret_key": "1",
            "kbitem": null,
            "merged_to": null
        }
    },
    {
        "model": "helpdesk.ticket",
        "pk": 32,
        "fields": {
            "title": "rwwdbwiwxjcovgjtzoll",
            "queue": 1,
            "created": "2021-08-16T15:14:02.370",
            "modified": "2021-08-16T15:14:02.370",
            "submitter_email": null,
            "assigned_to": null,
            "status": 4,
            "on_hold": false,
            "description": "akrqxthnisdmofvigwogrltvafcklyjuiqumqeajwjdbruovby",
            "resolution": "",
            "priority": 2,
            "due_date": null,
            "last_escalation": null,
            "secret_key": "1",
            "kbitem": null,
            "merged_to": null
        }
    },
    {
        "model": "helpdesk.ticket",
        "pk": 33,
        "fields": {
            "title": "vkucfstlytqvdwqebija",
            "queue": 1,
            "created": "2021-08-16T15:14:02.375",
            "modified": "2021-08-16T15:14:02.376",
            "submitter_email": null,
            "assigned_to": null,
            "status": 2,
            "on_hold": false,
            "description": "ccomrkgmjiyrmjqyfgllodpztsgulzonlssgjhyrkkmsvjirfo",
            "resolution": "",
            "priority": 2,
            "due_date": null,
            "last_escalation": null,
            "secret_key": "1",
            "kbitem": null,
            "merged_to": null
        }
    },
    {
        "model": "helpdesk.ticket",
        "pk": 34,
        "fields": {
            "title": "ouazrvuwfedfpiaitama",
            "queue": 2,
            "created": "2021-08-16T15:14:03.508",
            "modified": "2021-08-16T15:14:03.508",
            "submitter_email": null,
            "assigned_to": null,
            "status": 3,
            "on_hold": false,
            "description": "kcvxsgvwkfkypvanstzlawdvxyhhskgqtrqwxaibwantehvzos",
            "resolution": "",
            "priority": 3,
            "due_date": null,
            "last_escalation": null,
            "secret_key": "1",
            "kbitem": null,
            "merged_to": null
        }
    },
    {
        "model": "helpdesk.ticket",
        "pk": 35,
        "fields": {
            "title": "sigmaotilzhhrduyqdlt",
            "queue": 2,
            "created": "2021-08-16T15:14:04.786",
            "modified": "2021-08-16T15:14:04.786",
            "submitter_email": null,
            "assigned_to": null,
            "status": 4,
            "on_hold": false,
            "description": "vlfehcwhnuuioufgbdcznrmvhwofczktkepfvazfndweadxsmy",
            "resolution": "",
            "priority": 4,
            "due_date": null,
            "last_escalation": null,
            "secret_key": "1",
            "kbitem": null,
            "merged_to": null
        }
    },
    {
        "model": "helpdesk.ticket",
        "pk": 36,
        "fields": {
            "title": "nibmajwnkibfegargypb",
            "queue": 2,
            "created": "2021-08-16T15:14:04.819",
            "modified": "2021-08-16T15:14:04.819",
            "submitter_email": null,
            "assigned_to": null,
            "status": 2,
            "on_hold": false,
            "description": "stxsaogerormfkglsqfowxuwyqzgmmbiudmzqzybgumlcppqef",
            "resolution": "",
            "priority": 5,
            "due_date": null,
            "last_escalation": null,
            "secret_key": "1",
            "kbitem": null,
            "merged_to": null
        }
    },
    {
        "model": "helpdesk.ticket",
        "pk": 37,
        "fields": {
            "title": "fgsvhbkxwfimnypbhiqi",
            "queue": 2,
            "created": "2021-08-16T15:14:04.895",
            "modified": "2021-08-16T15:14:04.895",
            "submitter_email": null,
            "assigned_to": null,
            "status": 1,
            "on_hold": false,
            "description": "bazuqurjrowovkbrjtncvsquckomxpgwdagrndkkgvxjnczvus",
            "resolution": "",
            "priority": 4,
            "due_date": null,
            "last_escalation": null,
            "secret_key": "1",
            "kbitem": null,
            "merged_to": null
        }
    },
    {
        "model": "helpdesk.ticket",
        "pk": 38,
        "fields": {
            "title": "pehonnuhfmjuscjrqvtq",
            "queue": 2,
            "created": "2021-08-16T15:14:04.921",
            "modified": "2021-08-16T15:14:04.921",
            "submitter_email": null,
            "assigned_to": null,
            "status": 5,
            "on_hold": false,
            "description": "fgppqlcwbaaxscekvzhjwhtmthabjkaebbpujkmzqpsgsbwqoe",
            "resolution": "",
            "priority": 3,
            "due_date": null,
            "last_escalation": null,
            "secret_key": "1",
            "kbitem": null,
            "merged_to": null
        }
    },
    {
        "model": "helpdesk.ticket",
        "pk": 39,
        "fields": {
            "title": "pfvtbnvyxhaeuajiospr",
            "queue": 1,
            "created": "2021-08-16T15:14:05.983",
            "modified": "2021-08-16T15:14:05.983",
            "submitter_email": null,
            "assigned_to": null,
            "status": 3,
            "on_hold": false,
            "description": "xfilynpxfhkhbxqpzyslbgdwuyvqtwmwvieriozcxmzwoirsnl",
            "resolution": "",
            "priority": 4,
            "due_date": null,
            "last_escalation": null,
            "secret_key": "1",
            "kbitem": null,
            "merged_to": null
        }
    },
    {
        "model": "helpdesk.ticket",
        "pk": 40,
        "fields": {
            "title": "xzqbpjkdrbnbkthutlja",
            "queue": 2,
            "created": "2021-08-16T15:14:06.977",
            "modified": "2021-08-16T15:14:06.977",
            "submitter_email": null,
            "assigned_to": null,
            "status": 5,
            "on_hold": false,
            "description": "dwjvdhjosadwnksuuqsolobwcinbmjrilgtjkvixpvpmngyhdg",
            "resolution": "",
            "priority": 5,
            "due_date": null,
            "last_escalation": null,
            "secret_key": "1",
            "kbitem": null,
            "merged_to": null
        }
    },
    {
        "model": "helpdesk.ticket",
        "pk": 41,
        "fields": {
            "title": "uchkvwbwomjrniwmmeix",
            "queue": 2,
            "created": "2021-08-16T15:14:06.995",
            "modified": "2021-08-16T15:14:06.995",
            "submitter_email": null,
            "assigned_to": null,
            "status": 4,
            "on_hold": false,
            "description": "zjjmehnrwggqlyesnfxusbqhdrwcqgurswheudpofkwaxxlncs",
            "resolution": "",
            "priority": 2,
            "due_date": null,
            "last_escalation": null,
            "secret_key": "1",
            "kbitem": null,
            "merged_to": null
        }
    },
    {
        "model": "helpdesk.ticket",
        "pk": 42,
        "fields": {
            "title": "dyqngyjvcrinmnucrjle",
            "queue": 2,
            "created": "2021-08-16T15:14:07.026",
            "modified": "2021-08-16T15:14:07.026",
            "submitter_email": null,
            "assigned_to": null,
            "status": 2,
            "on_hold": false,
            "description": "hbvxeegicogtkusjldxxzvjkvbxysggunmcomdsflinrdsjxja",
            "resolution": "",
            "priority": 1,
            "due_date": null,
            "last_escalation": null,
            "secret_key": "1",
            "kbitem": null,
            "merged_to": null
        }
    },
    {
        "model": "helpdesk.ticket",
        "pk": 43,
        "fields": {
            "title": "aaoyxshxyahpqkqfwxad",
            "queue": 2,
            "created": "2021-08-16T15:14:07.035",
            "modified": "2021-08-16T15:14:07.035",
            "submitter_email": null,
            "assigned_to": null,
            "status": 1,
            "on_hold": false,
            "description": "dmjvzqwhpkxfnxebenjjpkorqzmeeidvghtxhovjpsgwbctvdz",
            "resolution": "",
            "priority": 3,
            "due_date": null,
            "last_escalation": null,
            "secret_key": "1",
            "kbitem": null,
            "merged_to": null
        }
    },
    {
        "model": "helpdesk.ticket",
        "pk": 44,
        "fields": {
            "title": "sbmpfhsgypbvxsepkdnk",
            "queue": 2,
            "created": "2021-08-16T15:14:08.127",
            "modified": "2021-08-16T15:14:08.127",
            "submitter_email": null,
            "assigned_to": null,
            "status": 3,
            "on_hold": false,
            "description": "qssrnjwxympdnqkxktzbeopknbdhlidcdylcacktbvbcjmogxc",
            "resolution": "",
            "priority": 1,
            "due_date": null,
            "last_escalation": null,
            "secret_key": "1",
            "kbitem": null,
            "merged_to": null
        }
    },
    {
        "model": "helpdesk.ticket",
        "pk": 45,
        "fields": {
            "title": "zccqpgaxxjyjglyovsqm",
            "queue": 1,
            "created": "2021-08-16T15:14:09.167",
            "modified": "2021-08-16T15:14:09.167",
            "submitter_email": null,
            "assigned_to": null,
            "status": 1,
            "on_hold": false,
            "description": "nxnfiiccrpjsrgrwnpczqzbmfurxfwwgechrekglsegbpdrdmp",
            "resolution": "",
            "priority": 1,
            "due_date": null,
            "last_escalation": null,
            "secret_key": "1",
            "kbitem": null,
            "merged_to": null
        }
    },
    {
        "model": "helpdesk.ticket",
        "pk": 46,
        "fields": {
            "title": "ytinfcrlwqlwnxxoveqe",
            "queue": 1,
            "created": "2021-08-16T15:14:09.175",
            "modified": "2021-08-16T15:14:09.175",
            "submitter_email": null,
            "assigned_to": null,
            "status": 4,
            "on_hold": false,
            "description": "obnzcugnhjxxwtuabdfyrssjayogshxfmzqndvcksotmnmkmux",
            "resolution": "",
            "priority": 4,
            "due_date": null,
            "last_escalation": null,
            "secret_key": "1",
            "kbitem": null,
            "merged_to": null
        }
    },
    {
        "model": "helpdesk.ticket",
        "pk": 47,
        "fields": {
            "title": "mjzqabahftwjolixzqzc",
            "queue": 2,
            "created": "2021-08-16T15:14:09.294",
            "modified": "2021-08-16T15:14:09.294",
            "submitter_email": null,
            "assigned_to": null,
            "status": 5,
            "on_hold": false,
            "description": "avxhuakrypxwjkcoydkkfpvtbvywtapgmnssholwhtfbenerhw",
            "resolution": "",
            "priority": 4,
            "due_date": null,
            "last_escalation": null,
            "secret_key": "1",
            "kbitem": null,
            "merged_to": null
        }
    },
    {
        "model": "helpdesk.ticket",
        "pk": 48,
        "fields": {
            "title": "sxsmsaznlojsmtptskgl",
            "queue": 1,
            "created": "2021-08-16T15:14:09.298",
            "modified": "2021-08-16T15:14:09.298",
            "submitter_email": null,
            "assigned_to": null,
            "status": 2,
            "on_hold": false,
            "description": "mgdwwfrfrhfeaijgqrcxprbdnpdnzyntbnrgybaemlfxpdnvom",
            "resolution": "",
            "priority": 1,
            "due_date": null,
            "last_escalation": null,
            "secret_key": "1",
            "kbitem": null,
            "merged_to": null
        }
    },
    {
        "model": "helpdesk.ticket",
        "pk": 49,
        "fields": {
            "title": "jobrupiuwuilovmeqljo",
            "queue": 1,
            "created": "2021-08-16T15:14:10.399",
            "modified": "2021-08-16T15:14:10.399",
            "submitter_email": null,
            "assigned_to": null,
            "status": 3,
            "on_hold": false,
            "description": "ptxjxapplbridlscawslzjiqylfrkkoqetecltylhankftjqbo",
            "resolution": "",
            "priority": 4,
            "due_date": null,
            "last_escalation": null,
            "secret_key": "1",
            "kbitem": null,
            "merged_to": null
        }
    },
    {
        "model": "helpdesk.ticket",
        "pk": 50,
        "fields": {
            "title": "qgsmzzrpruurfhryuzkh",
            "queue": 1,
            "created": "2021-08-16T15:14:11.287",
            "modified": "2021-08-16T15:14:11.287",
            "submitter_email": null,
            "assigned_to": null,
            "status": 4,
            "on_hold": false,
            "description": "ypnqfhimdbiekglbtuuhoojfyynybasqyofigurcjczwsndiep",
            "resolution": "",
            "priority": 5,
            "due_date": null,
            "last_escalation": null,
            "secret_key": "1",
            "kbitem": null,
            "merged_to": null
        }
    },
    {
        "model": "helpdesk.ticket",
        "pk": 51,
        "fields": {
            "title": "qjltaenmyouenkbkgxbw",
            "queue": 2,
            "created": "2021-08-16T15:14:11.445",
            "modified": "2021-08-16T15:14:11.445",
            "submitter_email": null,
            "assigned_to": null,
            "status": 1,
            "on_hold": false,
            "description": "bwbsrpgmzdvygecgpacszrnslawnbtgehodwrgnpjmgoqrygkw",
            "resolution": "",
            "priority": 5,
            "due_date": null,
            "last_escalation": null,
            "secret_key": "1",
            "kbitem": null,
            "merged_to": null
        }
    },
    {
        "model": "helpdesk.ticket",
        "pk": 52,
        "fields": {
            "title": "rrperuvaasrzreejwsyw",
            "queue": 2,
            "created": "2021-08-16T15:14:11.447",
            "modified": "2021-08-16T15:14:11.447",
            "submitter_email": null,
            "assigned_to": null,
            "status": 2,
            "on_hold": false,
            "description": "dpekergiioyhmicpymabwigwcebxavhumqjkwctdujdptuzdmm",
            "resolution": "",
            "priority": 5,
            "due_date": null,
            "last_escalation": null,
            "secret_key": "1",
            "kbitem": null,
            "merged_to": null
        }
    },
    {
        "model": "helpdesk.ticket",
        "pk": 53,
        "fields": {
            "title": "pdeahuvcxbfqxdalquer",
            "queue": 1,
            "created": "2021-08-16T15:14:11.517",
            "modified": "2021-08-16T15:14:11.517",
            "submitter_email": null,
            "assigned_to": null,
            "status": 5,
            "on_hold": false,
            "description": "difcddztlrkfvyhcmznqfhrfiogxfxcvdflpkhmuxqadtsvtxo",
            "resolution": "",
            "priority": 1,
            "due_date": null,
            "last_escalation": null,
            "secret_key": "1",
            "kbitem": null,
            "merged_to": null
        }
    },
    {
        "model": "helpdesk.ticket",
        "pk": 54,
        "fields": {
            "title": "cwnbzgslgjgnolkgnmkk",
            "queue": 2,
            "created": "2021-08-16T15:14:12.574",
            "modified": "2021-08-16T15:14:12.574",
            "submitter_email": null,
            "assigned_to": null,
            "status": 3,
            "on_hold": false,
            "description": "lbismxkroupjadhhervfitbfoskrwnbultiadepzfxsmqkfbyq",
            "resolution": "",
            "priority": 5,
            "due_date": null,
            "last_escalation": null,
            "secret_key": "1",
            "kbitem": null,
            "merged_to": null
        }
    },
    {
        "model": "helpdesk.ticket",
        "pk": 55,
        "fields": {
            "title": "njcvajnltszbfgwptjzp",
            "queue": 2,
            "created": "2021-08-16T15:14:13.518",
            "modified": "2021-08-16T15:14:13.518",
            "submitter_email": null,
            "assigned_to": null,
            "status": 1,
            "on_hold": false,
            "description": "voisqlkvhjvibpeytcytgkwedmxbqlgmpsqeffatgabvgkbsyh",
            "resolution": "",
            "priority": 4,
            "due_date": null,
            "last_escalation": null,
            "secret_key": "1",
            "kbitem": null,
            "merged_to": null
        }
    },
    {
        "model": "helpdesk.ticket",
        "pk": 56,
        "fields": {
            "title": "akjlawdlztesvyzmawnl",
            "queue": 2,
            "created": "2021-08-16T15:14:14.010",
            "modified": "2021-08-16T15:14:14.010",
            "submitter_email": null,
            "assigned_to": null,
            "status": 3,
            "on_hold": false,
            "description": "nsbtnlxxxnppslyaathoqnosuotzjaxpwmhdqdpyjvcqqjublc",
            "resolution": "",
            "priority": 5,
            "due_date": null,
            "last_escalation": null,
            "secret_key": "1",
            "kbitem": null,
            "merged_to": null
        }
    },
    {
        "model": "helpdesk.ticket",
        "pk": 57,
        "fields": {
            "title": "dxroptnaqipivrndxlpt",
            "queue": 1,
            "created": "2021-08-16T15:14:14.572",
            "modified": "2021-08-16T15:14:14.572",
            "submitter_email": null,
            "assigned_to": null,
            "status": 1,
            "on_hold": false,
            "description": "mdphiczknwepmwqxvmrdxuhpyoxuyohvopypktoukimzmfgqop",
            "resolution": "",
            "priority": 1,
            "due_date": null,
            "last_escalation": null,
            "secret_key": "1",
            "kbitem": null,
            "merged_to": null
        }
    },
    {
        "model": "helpdesk.ticket",
        "pk": 58,
        "fields": {
            "title": "zutgxgsiutkvyyfcffwt",
            "queue": 1,
            "created": "2021-08-16T15:14:15.191",
            "modified": "2021-08-16T15:14:15.191",
            "submitter_email": null,
            "assigned_to": null,
            "status": 3,
            "on_hold": false,
            "description": "rllmevezuxkkhrcodxukvtxosbxbmwwchjhghvpccyqmqyqkxs",
            "resolution": "",
            "priority": 5,
            "due_date": null,
            "last_escalation": null,
            "secret_key": "1",
            "kbitem": null,
            "merged_to": null
        }
    },
    {
        "model": "helpdesk.ticket",
        "pk": 59,
        "fields": {
            "title": "obxdijpjydunueezefcd",
            "queue": 1,
            "created": "2021-08-16T15:14:15.706",
            "modified": "2021-08-16T15:14:15.706",
            "submitter_email": null,
            "assigned_to": null,
            "status": 1,
            "on_hold": false,
            "description": "mrpboatnbsssmebdtgdekhoiokumndkqoxcjbkdfuyydqleuoc",
            "resolution": "",
            "priority": 4,
            "due_date": null,
            "last_escalation": null,
            "secret_key": "1",
            "kbitem": null,
            "merged_to": null
        }
    },
    {
        "model": "helpdesk.ticket",
        "pk": 60,
        "fields": {
            "title": "bhxaugfukiggfdoagnrk",
            "queue": 1,
            "created": "2021-08-16T15:14:16.353",
            "modified": "2021-08-16T15:14:16.353",
            "submitter_email": null,
            "assigned_to": null,
            "status": 3,
            "on_hold": false,
            "description": "awfttthvbmulirffpsxfyaytoohzjippffxsxxbplsekwaabbg",
            "resolution": "",
            "priority": 2,
            "due_date": null,
            "last_escalation": null,
            "secret_key": "1",
            "kbitem": null,
            "merged_to": null
        }
    },
    {
        "model": "helpdesk.ticket",
        "pk": 61,
        "fields": {
            "title": "bauhbfahlvexuhfufbqo",
            "queue": 2,
            "created": "2021-08-16T15:14:16.812",
            "modified": "2021-08-16T15:14:16.812",
            "submitter_email": null,
            "assigned_to": null,
            "status": 1,
            "on_hold": false,
            "description": "prismtfuzebfokcpcwdhugwmrbmugqsrsckkeglzlfxoelubrq",
            "resolution": "",
            "priority": 4,
            "due_date": null,
            "last_escalation": null,
            "secret_key": "1",
            "kbitem": null,
            "merged_to": null
        }
    },
    {
        "model": "helpdesk.ticket",
        "pk": 62,
        "fields": {
            "title": "wlqpjlivgxjrxymtevkj",
            "queue": 2,
            "created": "2021-08-16T15:14:17.494",
            "modified": "2021-08-16T15:14:17.494",
            "submitter_email": null,
            "assigned_to": null,
            "status": 3,
            "on_hold": false,
            "description": "ltateczknezqdghwpqsdtaexohjnfcntvzuptfrucjynhhkioa",
            "resolution": "",
            "priority": 1,
            "due_date": null,
            "last_escalation": null,
            "secret_key": "1",
            "kbitem": null,
            "merged_to": null
        }
    },
    {
        "model": "helpdesk.ticket",
        "pk": 63,
        "fields": {
            "title": "gmjpjoyvhkdlyejmltcu",
            "queue": 2,
            "created": "2021-08-16T15:14:17.903",
            "modified": "2021-08-16T15:14:17.903",
            "submitter_email": null,
            "assigned_to": null,
            "status": 1,
            "on_hold": false,
            "description": "ntmhxdecbvkvietfhjzwccuawejffuunhabjbzlsnbbycahutc",
            "resolution": "",
            "priority": 4,
            "due_date": null,
            "last_escalation": null,
            "secret_key": "1",
            "kbitem": null,
            "merged_to": null
        }
    },
    {
        "model": "helpdesk.ticket",
        "pk": 64,
        "fields": {
            "title": "gdlsbammdtkrxakgupbd",
            "queue": 1,
            "created": "2021-08-16T15:14:18.848",
            "modified": "2021-08-16T15:14:18.848",
            "submitter_email": null,
            "assigned_to": null,
            "status": 1,
            "on_hold": false,
            "description": "iafbcpdjbdllbnxmobmznklwxxrjwaklzhmvyldflrwposenuv",
            "resolution": "",
            "priority": 4,
            "due_date": null,
            "last_escalation": null,
            "secret_key": "1",
            "kbitem": null,
            "merged_to": null
        }
    },
    {
        "model": "helpdesk.ticket",
        "pk": 65,
        "fields": {
            "title": "jjavrjdoraivebfifsxj",
            "queue": 2,
            "created": "2021-08-16T15:14:19.759",
            "modified": "2021-08-16T15:14:19.759",
            "submitter_email": null,
            "assigned_to": null,
            "status": 1,
            "on_hold": false,
            "description": "trmgqprukprvtgwrgwjanlvyssdacwiushzcoxblhuzucanttr",
            "resolution": "",
            "priority": 4,
            "due_date": null,
            "last_escalation": null,
            "secret_key": "1",
            "kbitem": null,
            "merged_to": null
        }
    },
    {
        "model": "helpdesk.ticket",
        "pk": 66,
        "fields": {
            "title": "crnjynmxhathonxfyvxx",
            "queue": 1,
            "created": "2021-08-16T15:14:20.743",
            "modified": "2021-08-16T15:14:20.743",
            "submitter_email": null,
            "assigned_to": null,
            "status": 1,
            "on_hold": false,
            "description": "rsxaqtacmasvohnvlfzbgbskptrfwsoarfdeglosbrycotoyeq",
            "resolution": "",
            "priority": 5,
            "due_date": null,
            "last_escalation": null,
            "secret_key": "1",
            "kbitem": null,
            "merged_to": null
        }
    },
    {
        "model": "helpdesk.ticket",
        "pk": 67,
        "fields": {
            "title": "obckwrmtfwsjurbctjet",
            "queue": 1,
            "created": "2021-08-16T15:14:21.689",
            "modified": "2021-08-16T15:14:21.689",
            "submitter_email": null,
            "assigned_to": null,
            "status": 1,
            "on_hold": false,
            "description": "fuysmebnaoredisjdkbrbnygffkvdwuyqzkxfimbffjlssxnih",
            "resolution": "",
            "priority": 4,
            "due_date": null,
            "last_escalation": null,
            "secret_key": "1",
            "kbitem": null,
            "merged_to": null
        }
    },
    {
        "model": "helpdesk.ticket",
        "pk": 68,
        "fields": {
            "title": "ynkynkeyyaymtwdmhoqk",
            "queue": 2,
            "created": "2021-08-16T15:14:22.584",
            "modified": "2021-08-16T15:14:22.584",
            "submitter_email": null,
            "assigned_to": null,
            "status": 1,
            "on_hold": false,
            "description": "ralkellmjjlblffewyshmfviiyuyghxumetywqxvnfdwkanewq",
            "resolution": "",
            "priority": 4,
            "due_date": null,
            "last_escalation": null,
            "secret_key": "1",
            "kbitem": null,
            "merged_to": null
        }
    }
]